<mxfile host="app.diagrams.net" modified="2023-06-26T18:35:13.226Z" agent="Mozilla/5.0 (Windows NT 10.0; Win64; x64; rv:109.0) Gecko/20100101 Firefox/114.0" etag="Pf35Sk6SP1oTAQoJBHAx" version="21.3.5" type="device">
  <diagram name="Page-1" id="90a13364-a465-7bf4-72fc-28e22215d7a0">
    <mxGraphModel dx="1050" dy="538" grid="1" gridSize="10" guides="1" tooltips="1" connect="1" arrows="1" fold="1" page="1" pageScale="1.5" pageWidth="1169" pageHeight="826" background="none" math="0" shadow="0">
      <root>
        <mxCell id="0" style=";html=1;" />
        <mxCell id="1" style=";html=1;" parent="0" />
        <mxCell id="3a17f1ce550125da-2" value="Arduino Nano" style="whiteSpace=wrap;html=1;shadow=1;fontSize=18;fillColor=#f5f5f5;strokeColor=#666666;" parent="1" vertex="1">
          <mxGeometry x="787" y="454" width="170" height="280" as="geometry" />
        </mxCell>
        <mxCell id="3a17f1ce550125da-4" value="&lt;div&gt;Mosfet &lt;br&gt;&lt;/div&gt;&lt;div&gt;Driver&lt;/div&gt;" style="whiteSpace=wrap;html=1;shadow=1;fontSize=18;fillColor=#ffe6cc;strokeColor=#d79b00;" parent="1" vertex="1">
          <mxGeometry x="1037" y="450" width="123" height="290" as="geometry" />
        </mxCell>
        <mxCell id="tvk583Z_Dtz8nhUQx-KF-1" value="Solenoid" style="whiteSpace=wrap;html=1;shadow=1;fontSize=18;fillColor=#d5e8d4;strokeColor=#82b366;" vertex="1" parent="1">
          <mxGeometry x="1320" y="459" width="150" height="141" as="geometry" />
        </mxCell>
        <mxCell id="tvk583Z_Dtz8nhUQx-KF-2" value="Load" style="text;html=1;strokeColor=none;fillColor=none;align=center;verticalAlign=middle;whiteSpace=wrap;rounded=0;" vertex="1" parent="1">
          <mxGeometry x="1120" y="570" width="60" height="30" as="geometry" />
        </mxCell>
        <mxCell id="tvk583Z_Dtz8nhUQx-KF-3" value="&lt;font style=&quot;font-size: 17px;&quot;&gt;+&lt;/font&gt;" style="text;html=1;strokeColor=none;fillColor=none;align=center;verticalAlign=middle;whiteSpace=wrap;rounded=0;" vertex="1" parent="1">
          <mxGeometry x="1120" y="480" width="60" height="30" as="geometry" />
        </mxCell>
        <mxCell id="tvk583Z_Dtz8nhUQx-KF-14" value="" style="edgeStyle=orthogonalEdgeStyle;rounded=0;orthogonalLoop=1;jettySize=auto;html=1;" edge="1" parent="1" source="tvk583Z_Dtz8nhUQx-KF-4">
          <mxGeometry relative="1" as="geometry">
            <mxPoint x="1250" y="715" as="targetPoint" />
          </mxGeometry>
        </mxCell>
        <mxCell id="tvk583Z_Dtz8nhUQx-KF-15" value="GND" style="edgeLabel;html=1;align=center;verticalAlign=middle;resizable=0;points=[];" vertex="1" connectable="0" parent="tvk583Z_Dtz8nhUQx-KF-14">
          <mxGeometry x="0.3039" y="2" relative="1" as="geometry">
            <mxPoint x="55" y="2" as="offset" />
          </mxGeometry>
        </mxCell>
        <mxCell id="tvk583Z_Dtz8nhUQx-KF-4" value="&lt;font style=&quot;font-size: 18px;&quot;&gt;-&lt;/font&gt;" style="text;html=1;strokeColor=none;fillColor=none;align=center;verticalAlign=middle;whiteSpace=wrap;rounded=0;strokeWidth=11;" vertex="1" parent="1">
          <mxGeometry x="1120" y="700" width="30" height="30" as="geometry" />
        </mxCell>
        <mxCell id="tvk583Z_Dtz8nhUQx-KF-6" value="" style="endArrow=none;html=1;rounded=0;exitX=0.683;exitY=0.233;exitDx=0;exitDy=0;exitPerimeter=0;" edge="1" parent="1" source="tvk583Z_Dtz8nhUQx-KF-2" target="tvk583Z_Dtz8nhUQx-KF-7">
          <mxGeometry width="50" height="50" relative="1" as="geometry">
            <mxPoint x="1160" y="590" as="sourcePoint" />
            <mxPoint x="1210" y="540" as="targetPoint" />
          </mxGeometry>
        </mxCell>
        <mxCell id="tvk583Z_Dtz8nhUQx-KF-7" value="&lt;font style=&quot;font-size: 18px;&quot;&gt;-&lt;/font&gt;" style="text;html=1;strokeColor=none;fillColor=none;align=center;verticalAlign=middle;whiteSpace=wrap;rounded=0;strokeWidth=11;" vertex="1" parent="1">
          <mxGeometry x="1320" y="560" width="40" height="30" as="geometry" />
        </mxCell>
        <mxCell id="tvk583Z_Dtz8nhUQx-KF-9" value="&lt;font style=&quot;font-size: 17px;&quot;&gt;+&lt;/font&gt;" style="text;html=1;strokeColor=none;fillColor=none;align=center;verticalAlign=middle;whiteSpace=wrap;rounded=0;" vertex="1" parent="1">
          <mxGeometry x="1320" y="480" width="40" height="30" as="geometry" />
        </mxCell>
        <mxCell id="tvk583Z_Dtz8nhUQx-KF-10" value="" style="endArrow=none;html=1;rounded=0;entryX=1.024;entryY=0.148;entryDx=0;entryDy=0;entryPerimeter=0;" edge="1" parent="1" source="tvk583Z_Dtz8nhUQx-KF-9" target="3a17f1ce550125da-4">
          <mxGeometry width="50" height="50" relative="1" as="geometry">
            <mxPoint x="1100" y="650" as="sourcePoint" />
            <mxPoint x="1150" y="600" as="targetPoint" />
          </mxGeometry>
        </mxCell>
        <mxCell id="tvk583Z_Dtz8nhUQx-KF-11" value="" style="endArrow=classic;html=1;rounded=0;" edge="1" parent="1">
          <mxGeometry width="50" height="50" relative="1" as="geometry">
            <mxPoint x="1240" y="490" as="sourcePoint" />
            <mxPoint x="1240" y="440" as="targetPoint" />
          </mxGeometry>
        </mxCell>
        <mxCell id="tvk583Z_Dtz8nhUQx-KF-12" value="5V" style="text;html=1;strokeColor=none;fillColor=none;align=center;verticalAlign=middle;whiteSpace=wrap;rounded=0;" vertex="1" parent="1">
          <mxGeometry x="840" y="380" width="60" height="30" as="geometry" />
        </mxCell>
        <mxCell id="tvk583Z_Dtz8nhUQx-KF-16" value="NRF24" style="whiteSpace=wrap;html=1;shadow=1;fontSize=18;fillColor=#dae8fc;strokeColor=#6c8ebf;" vertex="1" parent="1">
          <mxGeometry x="480" y="455" width="170" height="280" as="geometry" />
        </mxCell>
        <mxCell id="tvk583Z_Dtz8nhUQx-KF-17" value="MOSI" style="text;html=1;strokeColor=none;fillColor=none;align=center;verticalAlign=middle;whiteSpace=wrap;rounded=0;" vertex="1" parent="1">
          <mxGeometry x="800" y="480" width="60" height="30" as="geometry" />
        </mxCell>
        <mxCell id="tvk583Z_Dtz8nhUQx-KF-18" value="MOSI" style="text;html=1;strokeColor=none;fillColor=none;align=center;verticalAlign=middle;whiteSpace=wrap;rounded=0;" vertex="1" parent="1">
          <mxGeometry x="590" y="480" width="60" height="30" as="geometry" />
        </mxCell>
        <mxCell id="tvk583Z_Dtz8nhUQx-KF-19" value="MISO" style="text;html=1;strokeColor=none;fillColor=none;align=center;verticalAlign=middle;whiteSpace=wrap;rounded=0;" vertex="1" parent="1">
          <mxGeometry x="590" y="514.5" width="60" height="30" as="geometry" />
        </mxCell>
        <mxCell id="tvk583Z_Dtz8nhUQx-KF-21" value="MISO" style="text;html=1;strokeColor=none;fillColor=none;align=center;verticalAlign=middle;whiteSpace=wrap;rounded=0;" vertex="1" parent="1">
          <mxGeometry x="800" y="510" width="60" height="30" as="geometry" />
        </mxCell>
        <mxCell id="tvk583Z_Dtz8nhUQx-KF-23" value="SCK" style="text;html=1;strokeColor=none;fillColor=none;align=center;verticalAlign=middle;whiteSpace=wrap;rounded=0;" vertex="1" parent="1">
          <mxGeometry x="590" y="544.5" width="60" height="30" as="geometry" />
        </mxCell>
        <mxCell id="tvk583Z_Dtz8nhUQx-KF-25" value="SCK" style="text;html=1;strokeColor=none;fillColor=none;align=center;verticalAlign=middle;whiteSpace=wrap;rounded=0;" vertex="1" parent="1">
          <mxGeometry x="800" y="544.5" width="60" height="30" as="geometry" />
        </mxCell>
        <mxCell id="tvk583Z_Dtz8nhUQx-KF-27" value="CE" style="text;html=1;strokeColor=none;fillColor=none;align=center;verticalAlign=middle;whiteSpace=wrap;rounded=0;" vertex="1" parent="1">
          <mxGeometry x="590" y="630" width="60" height="30" as="geometry" />
        </mxCell>
        <mxCell id="tvk583Z_Dtz8nhUQx-KF-28" value="CSN" style="text;html=1;strokeColor=none;fillColor=none;align=center;verticalAlign=middle;whiteSpace=wrap;rounded=0;" vertex="1" parent="1">
          <mxGeometry x="590" y="670" width="60" height="30" as="geometry" />
        </mxCell>
        <mxCell id="tvk583Z_Dtz8nhUQx-KF-29" value="D7" style="text;html=1;strokeColor=none;fillColor=none;align=center;verticalAlign=middle;whiteSpace=wrap;rounded=0;" vertex="1" parent="1">
          <mxGeometry x="800" y="630" width="60" height="30" as="geometry" />
        </mxCell>
        <mxCell id="tvk583Z_Dtz8nhUQx-KF-30" value="D8" style="text;html=1;strokeColor=none;fillColor=none;align=center;verticalAlign=middle;whiteSpace=wrap;rounded=0;" vertex="1" parent="1">
          <mxGeometry x="800" y="670" width="60" height="30" as="geometry" />
        </mxCell>
        <mxCell id="tvk583Z_Dtz8nhUQx-KF-31" value="D2" style="text;html=1;strokeColor=none;fillColor=none;align=center;verticalAlign=middle;whiteSpace=wrap;rounded=0;" vertex="1" parent="1">
          <mxGeometry x="920" y="544.5" width="30" height="30" as="geometry" />
        </mxCell>
        <mxCell id="tvk583Z_Dtz8nhUQx-KF-33" value="" style="endArrow=classic;html=1;rounded=0;" edge="1" parent="1" target="tvk583Z_Dtz8nhUQx-KF-17">
          <mxGeometry width="50" height="50" relative="1" as="geometry">
            <mxPoint x="640" y="495" as="sourcePoint" />
            <mxPoint x="870" y="640" as="targetPoint" />
          </mxGeometry>
        </mxCell>
        <mxCell id="tvk583Z_Dtz8nhUQx-KF-34" value="" style="endArrow=classic;html=1;rounded=0;" edge="1" parent="1" target="tvk583Z_Dtz8nhUQx-KF-21">
          <mxGeometry width="50" height="50" relative="1" as="geometry">
            <mxPoint x="650" y="525" as="sourcePoint" />
            <mxPoint x="740" y="540" as="targetPoint" />
          </mxGeometry>
        </mxCell>
        <mxCell id="tvk583Z_Dtz8nhUQx-KF-35" value="" style="endArrow=classic;html=1;rounded=0;entryX=0.117;entryY=0.517;entryDx=0;entryDy=0;entryPerimeter=0;" edge="1" parent="1" source="tvk583Z_Dtz8nhUQx-KF-23" target="tvk583Z_Dtz8nhUQx-KF-25">
          <mxGeometry width="50" height="50" relative="1" as="geometry">
            <mxPoint x="710" y="620" as="sourcePoint" />
            <mxPoint x="760" y="570" as="targetPoint" />
          </mxGeometry>
        </mxCell>
        <mxCell id="tvk583Z_Dtz8nhUQx-KF-38" value="" style="endArrow=classic;html=1;rounded=0;" edge="1" parent="1" source="tvk583Z_Dtz8nhUQx-KF-27" target="tvk583Z_Dtz8nhUQx-KF-29">
          <mxGeometry width="50" height="50" relative="1" as="geometry">
            <mxPoint x="680" y="650" as="sourcePoint" />
            <mxPoint x="730" y="600" as="targetPoint" />
          </mxGeometry>
        </mxCell>
        <mxCell id="tvk583Z_Dtz8nhUQx-KF-39" value="" style="endArrow=classic;html=1;rounded=0;" edge="1" parent="1" source="tvk583Z_Dtz8nhUQx-KF-28" target="tvk583Z_Dtz8nhUQx-KF-30">
          <mxGeometry width="50" height="50" relative="1" as="geometry">
            <mxPoint x="690" y="720" as="sourcePoint" />
            <mxPoint x="740" y="670" as="targetPoint" />
          </mxGeometry>
        </mxCell>
        <mxCell id="tvk583Z_Dtz8nhUQx-KF-40" value="" style="endArrow=classic;html=1;rounded=0;entryX=0.016;entryY=0.379;entryDx=0;entryDy=0;entryPerimeter=0;" edge="1" parent="1" source="tvk583Z_Dtz8nhUQx-KF-31" target="3a17f1ce550125da-4">
          <mxGeometry width="50" height="50" relative="1" as="geometry">
            <mxPoint x="970" y="624.5" as="sourcePoint" />
            <mxPoint x="1020" y="574.5" as="targetPoint" />
          </mxGeometry>
        </mxCell>
        <mxCell id="tvk583Z_Dtz8nhUQx-KF-41" value="PWM" style="text;html=1;strokeColor=none;fillColor=none;align=center;verticalAlign=middle;whiteSpace=wrap;rounded=0;" vertex="1" parent="1">
          <mxGeometry x="1037" y="544.5" width="30" height="30" as="geometry" />
        </mxCell>
        <mxCell id="tvk583Z_Dtz8nhUQx-KF-45" style="edgeStyle=orthogonalEdgeStyle;rounded=0;orthogonalLoop=1;jettySize=auto;html=1;exitX=0.5;exitY=1;exitDx=0;exitDy=0;" edge="1" parent="1" source="tvk583Z_Dtz8nhUQx-KF-43">
          <mxGeometry relative="1" as="geometry">
            <mxPoint x="1097" y="780" as="targetPoint" />
          </mxGeometry>
        </mxCell>
        <mxCell id="tvk583Z_Dtz8nhUQx-KF-43" value="GND" style="text;html=1;strokeColor=none;fillColor=none;align=center;verticalAlign=middle;whiteSpace=wrap;rounded=0;" vertex="1" parent="1">
          <mxGeometry x="1080" y="704" width="33.5" height="30" as="geometry" />
        </mxCell>
        <mxCell id="tvk583Z_Dtz8nhUQx-KF-46" value="GND" style="edgeLabel;html=1;align=center;verticalAlign=middle;resizable=0;points=[];" vertex="1" connectable="0" parent="1">
          <mxGeometry x="1280.4792260580452" y="725.3451077419195" as="geometry">
            <mxPoint x="-187" y="62" as="offset" />
          </mxGeometry>
        </mxCell>
        <mxCell id="tvk583Z_Dtz8nhUQx-KF-47" value="" style="endArrow=classic;html=1;rounded=0;" edge="1" parent="1">
          <mxGeometry width="50" height="50" relative="1" as="geometry">
            <mxPoint x="871.5" y="454" as="sourcePoint" />
            <mxPoint x="871.5" y="404" as="targetPoint" />
          </mxGeometry>
        </mxCell>
        <mxCell id="tvk583Z_Dtz8nhUQx-KF-48" value="12V" style="text;html=1;strokeColor=none;fillColor=none;align=center;verticalAlign=middle;whiteSpace=wrap;rounded=0;" vertex="1" parent="1">
          <mxGeometry x="1220" y="420" width="60" height="30" as="geometry" />
        </mxCell>
        <mxCell id="tvk583Z_Dtz8nhUQx-KF-51" value="3.3V" style="text;html=1;strokeColor=none;fillColor=none;align=center;verticalAlign=middle;whiteSpace=wrap;rounded=0;" vertex="1" parent="1">
          <mxGeometry x="540" y="385" width="60" height="30" as="geometry" />
        </mxCell>
        <mxCell id="tvk583Z_Dtz8nhUQx-KF-52" value="" style="endArrow=classic;html=1;rounded=0;" edge="1" parent="1">
          <mxGeometry width="50" height="50" relative="1" as="geometry">
            <mxPoint x="571.5" y="459" as="sourcePoint" />
            <mxPoint x="571.5" y="409" as="targetPoint" />
          </mxGeometry>
        </mxCell>
      </root>
    </mxGraphModel>
  </diagram>
</mxfile>
